## Interface: 30300
## Title: BigDebuffs
## Notes: Increases the debuff size of crowd control effects on the Blizzard CompactRaidFrames
## Version: 1.0.3
## Author: Jordon / Tsoukie
## SavedVariables: BigDebuffsDB
## RequiredDeps: !!!ClassicAPI

#@no-lib-strip@
Libs\LibStub\LibStub.lua
Libs\CallbackHandler-1.0\CallbackHandler-1.0.xml
Libs\AceAddon-3.0\AceAddon-3.0.xml
Libs\AceDB-3.0\AceDB-3.0.xml
Libs\AceDBOptions-3.0\AceDBOptions-3.0.xml
Libs\AceEvent-3.0\AceEvent-3.0.xml
Libs\AceHook-3.0\AceHook-3.0.xml
Libs\AceGUI-3.0\AceGUI-3.0.xml
Libs\AceConfig-3.0\AceConfig-3.0.xml
Libs\AceLocale-3.0\AceLocale-3.0.xml
Libs\LibSharedMedia-3.0\lib.xml
#@end-no-lib-strip@

Locales\Locales.xml
BigDebuffs.xml
BigDebuffs_Wrath.lua
BigDebuffs.lua
Options.lua
